{
  "development": {
    "use_env_variable": "PG_DATABASE_URL",
    "dialect": "postgres"
  },
  "staging": {
    "use_env_variable": "PG_DATABASE_URL",
    "dialect": "postgres"
  },
  "test": {
    "use_env_variable": "PG_DATABASE_URL_TEST",
    "dialect": "postgres",
    "logging": false
  },
  "production": {
    "use_env_variable": "PG_DATABASE_URL",
    "dialect": "postgres"
  }
}
